\relax 
\providecommand\hyper@newdestlabel[2]{}
\catcode `"\active 
\catcode `<\active 
\catcode `>\active 
\@nameuse{es@quoting}
\providecommand\HyperFirstAtBeginDocument{\AtBeginDocument}
\HyperFirstAtBeginDocument{\ifx\hyper@anchor\@undefined
\global\let\oldcontentsline\contentsline
\gdef\contentsline#1#2#3#4{\oldcontentsline{#1}{#2}{#3}}
\global\let\oldnewlabel\newlabel
\gdef\newlabel#1#2{\newlabelxx{#1}#2}
\gdef\newlabelxx#1#2#3#4#5#6{\oldnewlabel{#1}{{#2}{#3}}}
\AtEndDocument{\ifx\hyper@anchor\@undefined
\let\contentsline\oldcontentsline
\let\newlabel\oldnewlabel
\fi}
\fi}
\global\let\hyper@last\relax 
\gdef\HyperFirstAtBeginDocument#1{#1}
\providecommand\HyField@AuxAddToFields[1]{}
\providecommand\HyField@AuxAddToCoFields[2]{}
\providecommand \oddpage@label [2]{}
\select@language{spanish}
\@writefile{toc}{\select@language{spanish}}
\@writefile{lof}{\select@language{spanish}}
\@writefile{lot}{\select@language{spanish}}
\@input{./TeX_files/titlepage.aux}
\@input{./TeX_files/license.aux}
\@input{./TeX_files/frontmatter.aux}
\@input{./TeX_files/introduction.aux}
\@input{./TeX_files/methodology.aux}
\@input{./TeX_files/experimentation.aux}
\@input{./TeX_files/conclusions.aux}
\bibstyle{unsrt}
\bibdata{biblio}
\bibcite{Peset2015}{1}
\bibcite{OpenChartG82013}{2}
\bibcite{ComEu2014}{3}
\bibcite{H2020Guideline}{4}
\bibcite{OpenAIRE}{5}
\bibcite{Zenodo}{6}
\bibcite{DataCite}{7}
\bibcite{re3data}{8}
\bibcite{Figshare}{9}
\bibcite{Dryad}{10}
\bibcite{Datahub}{11}
\bibcite{Dataverse}{12}
\@writefile{toc}{\contentsline {chapter}{Bibliograf\IeC {\'\i }a}{61}{chapter.4}}
\bibcite{MyExperiment}{13}
\bibcite{ResearchObject}{14}
\bibcite{Tools}{15}
\bibcite{PythonLogo}{16}
\bibcite{DataverseLogo}{17}
\bibcite{DataverseAPI}{18}
\bibcite{TensorflowLogo}{19}
\bibcite{Tensorflow2015}{20}
\bibcite{Tensorboard}{21}
\bibcite{TavernaLogo}{22}
\bibcite{TavernaWorkflow}{23}
\bibcite{WisconsinUCI}{24}
