\beamer@endinputifotherversion {3.36pt}
\select@language {spanish}
\beamer@sectionintoc {1}{\scshape Estado del arte}{3}{0}{1}
\beamer@sectionintoc {2}{\scshape Propuesta}{9}{0}{2}
\beamer@sectionintoc {3}{\scshape Conclusiones}{23}{0}{3}
\beamer@sectionintoc {4}{\scshape Referencias}{25}{0}{4}
