\relax 
\providecommand\hyper@newdestlabel[2]{}
\citation{WisconsinUCI}
\@writefile{toc}{\contentsline {chapter}{\numberline {3}Propuesta}{17}{chapter.3}}
\@writefile{lof}{\addvspace {10\p@ }}
\@writefile{lot}{\addvspace {10\p@ }}
\newlabel{cha:propuesta}{{3}{17}{Propuesta}{chapter.3}{}}
\@writefile{toc}{\contentsline {section}{\numberline {3.1}Introducci\IeC {\'o}n}{17}{section.3.1}}
\newlabel{sec:intro-caso}{{3.1}{17}{Introducción}{section.3.1}{}}
\@writefile{toc}{\contentsline {section}{\numberline {3.2}Arquitectura de la soluci\IeC {\'o}n}{18}{section.3.2}}
\newlabel{sec:arquitectura}{{3.2}{18}{Arquitectura de la solución}{section.3.2}{}}
\@writefile{lof}{\contentsline {figure}{\numberline {3.1}{\ignorespaces Arquitectura del uso de las tecnolog\IeC {\'\i }as en la herramienta propuesta.\relax }}{18}{figure.caption.13}}
\newlabel{fig:arquitectura}{{3.1}{18}{Arquitectura del uso de las tecnologías en la herramienta propuesta.\relax }{figure.caption.13}{}}
\@writefile{toc}{\contentsline {section}{\numberline {3.3}Exploraci\IeC {\'o}n del repositorio}{19}{section.3.3}}
\newlabel{sec:exploracion}{{3.3}{19}{Exploración del repositorio}{section.3.3}{}}
\@writefile{lof}{\contentsline {figure}{\numberline {3.2}{\ignorespaces Diagrama con el flujo del proceso \textit  {repoRead} en Taverna.\relax }}{20}{figure.caption.14}}
\newlabel{fig:repoReadArq}{{3.2}{20}{Diagrama con el flujo del proceso \textit {repoRead} en Taverna.\relax }{figure.caption.14}{}}
\@writefile{lof}{\contentsline {figure}{\numberline {3.3}{\ignorespaces Entrada de datos para lanzar la b\IeC {\'u}squeda sobre el repositorio.\relax }}{21}{figure.caption.15}}
\newlabel{fig:repoReadInput}{{3.3}{21}{Entrada de datos para lanzar la búsqueda sobre el repositorio.\relax }{figure.caption.15}{}}
\@writefile{lof}{\contentsline {figure}{\numberline {3.4}{\ignorespaces Aviso del n\IeC {\'u}mero de resultados encontrados por la b\IeC {\'u}squeda.\relax }}{22}{figure.caption.16}}
\newlabel{fig:repoReadResultsCount}{{3.4}{22}{Aviso del número de resultados encontrados por la búsqueda.\relax }{figure.caption.16}{}}
\@writefile{lof}{\contentsline {figure}{\numberline {3.5}{\ignorespaces Ejemplo de visualizaci\IeC {\'o}n de un resultado devuelto por el repositorio.\relax }}{23}{figure.caption.17}}
\newlabel{fig:repoReadResult}{{3.5}{23}{Ejemplo de visualización de un resultado devuelto por el repositorio.\relax }{figure.caption.17}{}}
\@writefile{lof}{\contentsline {figure}{\numberline {3.6}{\ignorespaces Conjunto de datos relacionado a nuestros datos iniciales.\relax }}{23}{figure.caption.18}}
\newlabel{fig:repoReadDownload0}{{3.6}{23}{Conjunto de datos relacionado a nuestros datos iniciales.\relax }{figure.caption.18}{}}
\@writefile{lof}{\contentsline {figure}{\numberline {3.7}{\ignorespaces Aviso tras la descarga exitosa del fichero de datos de un resultado.\relax }}{24}{figure.caption.19}}
\newlabel{fig:repoReadDownload1}{{3.7}{24}{Aviso tras la descarga exitosa del fichero de datos de un resultado.\relax }{figure.caption.19}{}}
\@writefile{lof}{\contentsline {figure}{\numberline {3.8}{\ignorespaces Aviso tras la descarga fallida del fichero de datos de un resultado por su formato.\relax }}{24}{figure.caption.20}}
\newlabel{fig:repoReadDownload2}{{3.8}{24}{Aviso tras la descarga fallida del fichero de datos de un resultado por su formato.\relax }{figure.caption.20}{}}
\@writefile{lof}{\contentsline {figure}{\numberline {3.9}{\ignorespaces Ejemplo de uso del puerto de entrada \textit  {headerFile}.\relax }}{25}{figure.caption.21}}
\newlabel{fig:repoReadHeader0}{{3.9}{25}{Ejemplo de uso del puerto de entrada \textit {headerFile}.\relax }{figure.caption.21}{}}
\@writefile{lof}{\contentsline {figure}{\numberline {3.10}{\ignorespaces Aviso con informaci\IeC {\'o}n de los t\IeC {\'e}rminos encontrados en la cabecera de \textit  {headerFile}.\relax }}{25}{figure.caption.22}}
\newlabel{fig:repoReadHeader1}{{3.10}{25}{Aviso con información de los términos encontrados en la cabecera de \textit {headerFile}.\relax }{figure.caption.22}{}}
\@writefile{lof}{\contentsline {figure}{\numberline {3.11}{\ignorespaces Resultado donde se ven las coincidencias entre la descripci\IeC {\'o}n y el \textit  {headerFile}.\relax }}{25}{figure.caption.23}}
\newlabel{fig:repoReadHeader2}{{3.11}{25}{Resultado donde se ven las coincidencias entre la descripción y el \textit {headerFile}.\relax }{figure.caption.23}{}}
\@writefile{toc}{\contentsline {section}{\numberline {3.4}Visualizado y preprocesado de los datos}{26}{section.3.4}}
\newlabel{sec:preprocesado}{{3.4}{26}{Visualizado y preprocesado de los datos}{section.3.4}{}}
\@writefile{lof}{\contentsline {figure}{\numberline {3.12}{\ignorespaces Diagrama con el flujo del proceso \textit  {dataExploration} en Taverna.\relax }}{26}{figure.caption.24}}
\newlabel{fig:dataExpGeneralArq}{{3.12}{26}{Diagrama con el flujo del proceso \textit {dataExploration} en Taverna.\relax }{figure.caption.24}{}}
\@writefile{lof}{\contentsline {figure}{\numberline {3.13}{\ignorespaces Diagrama con el flujo del proceso central que compone \textit  {dataExploration}.\relax }}{27}{figure.caption.25}}
\newlabel{fig:dataExpMainArq-ver}{{3.13}{27}{Diagrama con el flujo del proceso central que compone \textit {dataExploration}.\relax }{figure.caption.25}{}}
\@writefile{lof}{\contentsline {figure}{\numberline {3.14}{\ignorespaces Entrada de datos en el puerto \textit  {fileName} para lanzar \textit  {dataExploration}.\relax }}{27}{figure.caption.26}}
\newlabel{fig:dataExpInput0}{{3.14}{27}{Entrada de datos en el puerto \textit {fileName} para lanzar \textit {dataExploration}.\relax }{figure.caption.26}{}}
\@writefile{lof}{\contentsline {figure}{\numberline {3.15}{\ignorespaces Entrada de datos en el puerto \textit  {hasHeader} para lanzar \textit  {dataExploration}.\relax }}{28}{figure.caption.27}}
\newlabel{fig:dataExpInput1}{{3.15}{28}{Entrada de datos en el puerto \textit {hasHeader} para lanzar \textit {dataExploration}.\relax }{figure.caption.27}{}}
\@writefile{lof}{\contentsline {figure}{\numberline {3.16}{\ignorespaces Pantalla principal de \textit  {dataExploration} con descripci\IeC {\'o}n del conjunto y selecci\IeC {\'o}n de acciones a realizar.\relax }}{29}{figure.caption.28}}
\newlabel{fig:dataExpInit}{{3.16}{29}{Pantalla principal de \textit {dataExploration} con descripción del conjunto y selección de acciones a realizar.\relax }{figure.caption.28}{}}
\@writefile{lof}{\contentsline {figure}{\numberline {3.17}{\ignorespaces Diagrama con el flujo del proceso de dibujado de un histograma.\relax }}{30}{figure.caption.30}}
\newlabel{fig:dataExpHistArq}{{3.17}{30}{Diagrama con el flujo del proceso de dibujado de un histograma.\relax }{figure.caption.30}{}}
\@writefile{lof}{\contentsline {figure}{\numberline {3.18}{\ignorespaces Ventana de selecci\IeC {\'o}n de columna a usar para representar el histograma.\relax }}{30}{figure.caption.31}}
\newlabel{fig:dataExpHist0}{{3.18}{30}{Ventana de selección de columna a usar para representar el histograma.\relax }{figure.caption.31}{}}
\@writefile{lof}{\contentsline {figure}{\numberline {3.19}{\ignorespaces Ejemplo de histograma que la herramienta propuesta puede dibujar.\relax }}{31}{figure.caption.32}}
\newlabel{fig:dataExpHist1}{{3.19}{31}{Ejemplo de histograma que la herramienta propuesta puede dibujar.\relax }{figure.caption.32}{}}
\@writefile{lof}{\contentsline {figure}{\numberline {3.20}{\ignorespaces Mensaje de confirmaci\IeC {\'o}n de finalizaci\IeC {\'o}n del histograma.\relax }}{31}{figure.caption.33}}
\newlabel{fig:dataExpHist2}{{3.20}{31}{Mensaje de confirmación de finalización del histograma.\relax }{figure.caption.33}{}}
\@writefile{lof}{\contentsline {figure}{\numberline {3.21}{\ignorespaces Diagrama con el flujo del proceso de dibujado de una nube de puntos.\relax }}{32}{figure.caption.34}}
\newlabel{fig:dataExpScatterArq}{{3.21}{32}{Diagrama con el flujo del proceso de dibujado de una nube de puntos.\relax }{figure.caption.34}{}}
\@writefile{lof}{\contentsline {figure}{\numberline {3.22}{\ignorespaces Ventanas de selecci\IeC {\'o}n de columnas a usar para representar la nube de puntos.\relax }}{32}{figure.caption.35}}
\newlabel{fig:dataExpScatter0}{{3.22}{32}{Ventanas de selección de columnas a usar para representar la nube de puntos.\relax }{figure.caption.35}{}}
\@writefile{lof}{\contentsline {figure}{\numberline {3.23}{\ignorespaces \relax }}{33}{figure.caption.36}}
\newlabel{fig:dataExpScatter3}{{3.23}{33}{\relax }{figure.caption.36}{}}
\newlabel{eq:feature-scaling}{{3.1}{33}{Normalización}{equation.3.4.1}{}}
\@writefile{lof}{\contentsline {figure}{\numberline {3.24}{\ignorespaces Diagrama con el flujo de la normalizaci\IeC {\'o}n por \textit  {feature scaling}.\relax }}{34}{figure.caption.38}}
\newlabel{fig:dataExpNormFeatureArq}{{3.24}{34}{Diagrama con el flujo de la normalización por \textit {feature scaling}.\relax }{figure.caption.38}{}}
\@writefile{lof}{\contentsline {figure}{\numberline {3.25}{\ignorespaces Descripci\IeC {\'o}n del conjunto tras la normalizaci\IeC {\'o}n por \textit  {feature scaling}.\relax }}{34}{figure.caption.39}}
\newlabel{fig:dataExpNormFeature0}{{3.25}{34}{Descripción del conjunto tras la normalización por \textit {feature scaling}.\relax }{figure.caption.39}{}}
\newlabel{eq:standardization}{{3.2}{35}{Normalización}{equation.3.4.2}{}}
\@writefile{lof}{\contentsline {figure}{\numberline {3.26}{\ignorespaces Diagrama con el flujo de la normalizaci\IeC {\'o}n por \textit  {standardization}.\relax }}{35}{figure.caption.40}}
\newlabel{fig:dataExpNormStdArq}{{3.26}{35}{Diagrama con el flujo de la normalización por \textit {standardization}.\relax }{figure.caption.40}{}}
\@writefile{lof}{\contentsline {figure}{\numberline {3.27}{\ignorespaces Descripci\IeC {\'o}n del conjunto tras la normalizaci\IeC {\'o}n por \textit  {standardization}.\relax }}{35}{figure.caption.41}}
\newlabel{fig:dataExpNormStd0}{{3.27}{35}{Descripción del conjunto tras la normalización por \textit {standardization}.\relax }{figure.caption.41}{}}
\@writefile{lof}{\contentsline {figure}{\numberline {3.28}{\ignorespaces Diagrama con el flujo del proceso de borrado de una columna.\relax }}{36}{figure.caption.43}}
\newlabel{fig:dataExpDropFeatArq}{{3.28}{36}{Diagrama con el flujo del proceso de borrado de una columna.\relax }{figure.caption.43}{}}
\@writefile{lof}{\contentsline {figure}{\numberline {3.29}{\ignorespaces Ventana de selecci\IeC {\'o}n de columna a borrar del conjunto.\relax }}{36}{figure.caption.44}}
\newlabel{fig:dataExpDropFeat0}{{3.29}{36}{Ventana de selección de columna a borrar del conjunto.\relax }{figure.caption.44}{}}
\@writefile{lof}{\contentsline {figure}{\numberline {3.30}{\ignorespaces Descripci\IeC {\'o}n del conjunto tras el borrado de la columna seleccionada.\relax }}{37}{figure.caption.45}}
\newlabel{fig:dataExpDropFeat1}{{3.30}{37}{Descripción del conjunto tras el borrado de la columna seleccionada.\relax }{figure.caption.45}{}}
\@writefile{lof}{\contentsline {figure}{\numberline {3.31}{\ignorespaces Descripci\IeC {\'o}n del conjunto inicial que posee valores perdidos en la columna 6.\relax }}{38}{figure.caption.47}}
\newlabel{fig:dataExpOriginal}{{3.31}{38}{Descripción del conjunto inicial que posee valores perdidos en la columna 6.\relax }{figure.caption.47}{}}
\@writefile{lof}{\contentsline {figure}{\numberline {3.32}{\ignorespaces Diagrama con el flujo del proceso de remplazo de valores perdidos.\relax }}{38}{figure.caption.48}}
\newlabel{fig:dataExpReplaceMissingArq}{{3.32}{38}{Diagrama con el flujo del proceso de remplazo de valores perdidos.\relax }{figure.caption.48}{}}
\@writefile{lof}{\contentsline {figure}{\numberline {3.33}{\ignorespaces Descripci\IeC {\'o}n del conjunto con valores perdidos tras su procesado por remplazo. Ahora la columna 6 tiene nuevos datos e iguala en muestras al resto de atributos.\relax }}{39}{figure.caption.49}}
\newlabel{fig:dataExpOriginalMean}{{3.33}{39}{Descripción del conjunto con valores perdidos tras su procesado por remplazo. Ahora la columna 6 tiene nuevos datos e iguala en muestras al resto de atributos.\relax }{figure.caption.49}{}}
\@writefile{lof}{\contentsline {figure}{\numberline {3.34}{\ignorespaces Diagrama con el flujo del proceso de borrado de muestras con valores perdidos.\relax }}{40}{figure.caption.50}}
\newlabel{fig:dataExpDropMissingArq}{{3.34}{40}{Diagrama con el flujo del proceso de borrado de muestras con valores perdidos.\relax }{figure.caption.50}{}}
\@writefile{lof}{\contentsline {figure}{\numberline {3.35}{\ignorespaces Descripci\IeC {\'o}n del conjunto con valores perdidos tras su procesado por borrado de muestras. Ahora el conjunto posee 683 muestras.\relax }}{40}{figure.caption.51}}
\newlabel{fig:dataExpOriginalDrop}{{3.35}{40}{Descripción del conjunto con valores perdidos tras su procesado por borrado de muestras. Ahora el conjunto posee 683 muestras.\relax }{figure.caption.51}{}}
\@writefile{lof}{\contentsline {figure}{\numberline {3.36}{\ignorespaces Diagrama con el flujo del proceso de conversi\IeC {\'o}n de clases a enumeraciones.\relax }}{41}{figure.caption.53}}
\newlabel{fig:dataExpLabelNumArq}{{3.36}{41}{Diagrama con el flujo del proceso de conversión de clases a enumeraciones.\relax }{figure.caption.53}{}}
\@writefile{lof}{\contentsline {figure}{\numberline {3.37}{\ignorespaces Ventana de selecci\IeC {\'o}n de columna con etiquetas.\relax }}{41}{figure.caption.54}}
\newlabel{fig:dataExpLabelNum0}{{3.37}{41}{Ventana de selección de columna con etiquetas.\relax }{figure.caption.54}{}}
\@writefile{lof}{\contentsline {figure}{\numberline {3.38}{\ignorespaces Descripci\IeC {\'o}n del conjunto tras la conversi\IeC {\'o}n de la columna de etiquetas \textit  {MALIG}.\relax }}{42}{figure.caption.55}}
\newlabel{fig:dataExpLabelNum1}{{3.38}{42}{Descripción del conjunto tras la conversión de la columna de etiquetas \textit {MALIG}.\relax }{figure.caption.55}{}}
\@writefile{lof}{\contentsline {figure}{\numberline {3.39}{\ignorespaces Diagrama con el flujo del proceso de guardar el conjunto procesado en un nuevo fichero.\relax }}{43}{figure.caption.57}}
\newlabel{fig:dataExpSaveArq}{{3.39}{43}{Diagrama con el flujo del proceso de guardar el conjunto procesado en un nuevo fichero.\relax }{figure.caption.57}{}}
\@writefile{lof}{\contentsline {figure}{\numberline {3.40}{\ignorespaces Ventana de solicitud del nombre del nuevo fichero a guardar.\relax }}{43}{figure.caption.58}}
\newlabel{fig:dataExpSave0}{{3.40}{43}{Ventana de solicitud del nombre del nuevo fichero a guardar.\relax }{figure.caption.58}{}}
\@writefile{lof}{\contentsline {figure}{\numberline {3.41}{\ignorespaces Mensaje de confirmaci\IeC {\'o}n de la creaci\IeC {\'o}n del nuevo fichero.\relax }}{43}{figure.caption.59}}
\newlabel{fig:dataExpSave1}{{3.41}{43}{Mensaje de confirmación de la creación del nuevo fichero.\relax }{figure.caption.59}{}}
\@writefile{toc}{\contentsline {section}{\numberline {3.5}Aprendizaje autom\IeC {\'a}tico}{44}{section.3.5}}
\newlabel{sec:aprendizaje}{{3.5}{44}{Aprendizaje automático}{section.3.5}{}}
\@writefile{lof}{\contentsline {figure}{\numberline {3.42}{\ignorespaces Diagrama con el flujo del proceso \textit  {modelBuild} en Taverna.\relax }}{44}{figure.caption.60}}
\newlabel{fig:modelBuildArq}{{3.42}{44}{Diagrama con el flujo del proceso \textit {modelBuild} en Taverna.\relax }{figure.caption.60}{}}
\newlabel{eq:hypothesis}{{3.3}{45}{Aprendizaje automático}{equation.3.5.3}{}}
\@writefile{lof}{\contentsline {figure}{\numberline {3.43}{\ignorespaces Ejemplo de uso del puerto de entrada \textit  {fileName} de \textit  {modelBuild}.\relax }}{45}{figure.caption.61}}
\newlabel{fig:modelBuildInput0}{{3.43}{45}{Ejemplo de uso del puerto de entrada \textit {fileName} de \textit {modelBuild}.\relax }{figure.caption.61}{}}
\@writefile{lof}{\contentsline {figure}{\numberline {3.44}{\ignorespaces Ejemplo de uso del puerto de entrada \textit  {hasHeader} de \textit  {modelBuild}.\relax }}{46}{figure.caption.62}}
\newlabel{fig:modelBuildInput1}{{3.44}{46}{Ejemplo de uso del puerto de entrada \textit {hasHeader} de \textit {modelBuild}.\relax }{figure.caption.62}{}}
\@writefile{lof}{\contentsline {figure}{\numberline {3.45}{\ignorespaces Ejemplo de uso del puerto de entrada \textit  {objColumn} de \textit  {modelBuild}.\relax }}{46}{figure.caption.63}}
\newlabel{fig:modelBuildInput2}{{3.45}{46}{Ejemplo de uso del puerto de entrada \textit {objColumn} de \textit {modelBuild}.\relax }{figure.caption.63}{}}
\@writefile{lof}{\contentsline {figure}{\numberline {3.46}{\ignorespaces Informaci\IeC {\'o}n que devuelve el programa \textit  {modelBuild} tras su procesamiento.\relax }}{47}{figure.caption.64}}
\newlabel{fig:modelBuildOutput}{{3.46}{47}{Información que devuelve el programa \textit {modelBuild} tras su procesamiento.\relax }{figure.caption.64}{}}
\@writefile{lof}{\contentsline {figure}{\numberline {3.47}{\ignorespaces Contenido de los ficheros que almacenan los datos necesarios para reaprovechar el modelo entrenado.\relax }}{48}{figure.caption.65}}
\newlabel{fig:modelBuildParameters}{{3.47}{48}{Contenido de los ficheros que almacenan los datos necesarios para reaprovechar el modelo entrenado.\relax }{figure.caption.65}{}}
\@writefile{lof}{\contentsline {figure}{\numberline {3.48}{\ignorespaces Lanzamiento de Tensorboard.\relax }}{49}{figure.caption.66}}
\newlabel{fig:modelbuild-board-run}{{3.48}{49}{Lanzamiento de Tensorboard.\relax }{figure.caption.66}{}}
\@writefile{lof}{\contentsline {figure}{\numberline {3.49}{\ignorespaces Pesta\IeC {\~n}a de eventos en Tensorboard.\relax }}{50}{figure.caption.67}}
\newlabel{fig:modelbuild-board-events}{{3.49}{50}{Pestaña de eventos en Tensorboard.\relax }{figure.caption.67}{}}
\@writefile{lof}{\contentsline {figure}{\numberline {3.50}{\ignorespaces Panel de ayuda del programa \textit  {modelBuild.py}.\relax }}{50}{figure.caption.68}}
\newlabel{fig:modelbuild-board-graph}{{3.50}{50}{Panel de ayuda del programa \textit {modelBuild.py}.\relax }{figure.caption.68}{}}
\@writefile{toc}{\contentsline {section}{\numberline {3.6}Recomendaci\IeC {\'o}n sobre datos}{51}{section.3.6}}
\newlabel{sec:recomendador}{{3.6}{51}{Recomendación sobre datos}{section.3.6}{}}
\@writefile{lof}{\contentsline {figure}{\numberline {3.51}{\ignorespaces Diagrama con el flujo del proceso \textit  {recommenderSysmte} en Taverna.\relax }}{51}{figure.caption.69}}
\newlabel{fig:recomArq}{{3.51}{51}{Diagrama con el flujo del proceso \textit {recommenderSysmte} en Taverna.\relax }{figure.caption.69}{}}
\@writefile{lof}{\contentsline {figure}{\numberline {3.52}{\ignorespaces Ejemplo de mapeo de las variables del conjunto de entrada y las utilizadas en el entrenamiento del modelo reutilizado.\relax }}{53}{figure.caption.70}}
\newlabel{fig:recomMap1}{{3.52}{53}{Ejemplo de mapeo de las variables del conjunto de entrada y las utilizadas en el entrenamiento del modelo reutilizado.\relax }{figure.caption.70}{}}
\@writefile{lof}{\contentsline {figure}{\numberline {3.53}{\ignorespaces Muestra de mensaje con el que \textit  {recommenderSystem} finaliza su ejecuci\IeC {\'o}n.\relax }}{54}{figure.caption.71}}
\newlabel{fig:recomOutput}{{3.53}{54}{Muestra de mensaje con el que \textit {recommenderSystem} finaliza su ejecución.\relax }{figure.caption.71}{}}
\@writefile{lof}{\contentsline {figure}{\numberline {3.54}{\ignorespaces Fichero con las predicciones realizadas por \textit  {recommenderSystem}.\relax }}{54}{figure.caption.72}}
\newlabel{fig:recomPredictions}{{3.54}{54}{Fichero con las predicciones realizadas por \textit {recommenderSystem}.\relax }{figure.caption.72}{}}
\@writefile{toc}{\contentsline {section}{\numberline {3.7}Ejecuci\IeC {\'o}n}{54}{section.3.7}}
\newlabel{sec:ejecucion}{{3.7}{54}{Ejecución}{section.3.7}{}}
\@writefile{lof}{\contentsline {figure}{\numberline {3.55}{\ignorespaces Ejemplo de modificaci\IeC {\'o}n de \textit  {repoSearch}, del \textit  {workflow repoRead}.\relax }}{55}{figure.caption.73}}
\newlabel{fig:reutilizacionScripts}{{3.55}{55}{Ejemplo de modificación de \textit {repoSearch}, del \textit {workflow repoRead}.\relax }{figure.caption.73}{}}
\@setckpt{./TeX_files/experimentation}{
\setcounter{page}{57}
\setcounter{equation}{3}
\setcounter{enumi}{6}
\setcounter{enumii}{0}
\setcounter{enumiii}{0}
\setcounter{enumiv}{0}
\setcounter{footnote}{0}
\setcounter{mpfootnote}{0}
\setcounter{part}{0}
\setcounter{chapter}{3}
\setcounter{section}{7}
\setcounter{subsection}{0}
\setcounter{subsubsection}{0}
\setcounter{paragraph}{0}
\setcounter{subparagraph}{0}
\setcounter{figure}{55}
\setcounter{table}{0}
\setcounter{r@tfl@t}{0}
\setcounter{AM@survey}{0}
\setcounter{ContinuedFloat}{0}
\setcounter{ALG@line}{0}
\setcounter{ALG@rem}{0}
\setcounter{ALG@nested}{0}
\setcounter{ALG@Lnr}{2}
\setcounter{ALG@blocknr}{10}
\setcounter{ALG@storecount}{0}
\setcounter{ALG@tmpcounter}{0}
\setcounter{float@type}{16}
\setcounter{algorithm}{0}
\setcounter{lstnumber}{1}
\setcounter{@pps}{0}
\setcounter{@ppsavesec}{0}
\setcounter{@ppsaveapp}{0}
\setcounter{@todonotes@numberoftodonotes}{0}
\setcounter{parentequation}{0}
\setcounter{Item}{18}
\setcounter{Hfootnote}{0}
\setcounter{bookmark@seq@number}{21}
\setcounter{tw@hyphen@char@num}{0}
\setcounter{lstlisting}{0}
\setcounter{section@level}{1}
}
