\relax 
\providecommand\hyper@newdestlabel[2]{}
\@writefile{toc}{\contentsline {chapter}{\numberline {1}Introducci\IeC {\'o}n}{1}{chapter.1}}
\@writefile{lof}{\addvspace {10\p@ }}
\@writefile{lot}{\addvspace {10\p@ }}
\newlabel{cha:introduccion}{{1}{1}{Introducción}{chapter.1}{}}
\@writefile{toc}{\contentsline {section}{\numberline {1.1}Introducci\IeC {\'o}n}{1}{section.1.1}}
\newlabel{sec:intro-intro}{{1.1}{1}{Introducción}{section.1.1}{}}
\citation{Peset2015}
\citation{OpenChartG82013}
\@writefile{toc}{\contentsline {section}{\numberline {1.2}Motivaci\IeC {\'o}n}{2}{section.1.2}}
\newlabel{sec:motivacion}{{1.2}{2}{Motivación}{section.1.2}{}}
\citation{ComEu2014}
\citation{H2020Guideline}
\citation{OpenAIRE}
\citation{Zenodo}
\citation{DataCite}
\@writefile{toc}{\contentsline {section}{\numberline {1.3}Estado del arte}{3}{section.1.3}}
\newlabel{sec:estado-del-arte}{{1.3}{3}{Estado del arte}{section.1.3}{}}
\citation{re3data}
\citation{Figshare}
\citation{Dryad}
\citation{Datahub}
\citation{Dataverse}
\citation{MyExperiment}
\citation{ResearchObject}
\citation{Tools}
\citation{ComEu2014}
\@writefile{toc}{\contentsline {section}{\numberline {1.4}Propuesta}{5}{section.1.4}}
\newlabel{sec:propuesta}{{1.4}{5}{Propuesta}{section.1.4}{}}
\@writefile{toc}{\contentsline {section}{\numberline {1.5}Objetivos}{7}{section.1.5}}
\newlabel{sec:objetivos}{{1.5}{7}{Objetivos}{section.1.5}{}}
\@writefile{toc}{\contentsline {section}{\numberline {1.6}Estructura}{7}{section.1.6}}
\newlabel{sec:estructura}{{1.6}{7}{Estructura}{section.1.6}{}}
\@setckpt{./TeX_files/introduction}{
\setcounter{page}{8}
\setcounter{equation}{0}
\setcounter{enumi}{8}
\setcounter{enumii}{0}
\setcounter{enumiii}{0}
\setcounter{enumiv}{0}
\setcounter{footnote}{0}
\setcounter{mpfootnote}{0}
\setcounter{part}{0}
\setcounter{chapter}{1}
\setcounter{section}{6}
\setcounter{subsection}{0}
\setcounter{subsubsection}{0}
\setcounter{paragraph}{0}
\setcounter{subparagraph}{0}
\setcounter{figure}{0}
\setcounter{table}{0}
\setcounter{r@tfl@t}{0}
\setcounter{AM@survey}{0}
\setcounter{ContinuedFloat}{0}
\setcounter{ALG@line}{0}
\setcounter{ALG@rem}{0}
\setcounter{ALG@nested}{0}
\setcounter{ALG@Lnr}{2}
\setcounter{ALG@blocknr}{10}
\setcounter{ALG@storecount}{0}
\setcounter{ALG@tmpcounter}{0}
\setcounter{float@type}{16}
\setcounter{algorithm}{0}
\setcounter{lstnumber}{1}
\setcounter{@pps}{0}
\setcounter{@ppsavesec}{0}
\setcounter{@ppsaveapp}{0}
\setcounter{@todonotes@numberoftodonotes}{0}
\setcounter{parentequation}{0}
\setcounter{Item}{8}
\setcounter{Hfootnote}{0}
\setcounter{bookmark@seq@number}{7}
\setcounter{tw@hyphen@char@num}{0}
\setcounter{lstlisting}{0}
\setcounter{section@level}{1}
}
