\relax 
\providecommand\hyper@newdestlabel[2]{}
\citation{PythonLogo}
\citation{PythonLogo}
\@writefile{toc}{\contentsline {chapter}{\numberline {2}Tecnolog\IeC {\'\i }as}{9}{chapter.2}}
\@writefile{lof}{\addvspace {10\p@ }}
\@writefile{lot}{\addvspace {10\p@ }}
\newlabel{cha:tecnologia}{{2}{9}{Tecnologías}{chapter.2}{}}
\@writefile{toc}{\contentsline {section}{\numberline {2.1}Introducci\IeC {\'o}n}{9}{section.2.1}}
\newlabel{sec:intro-met}{{2.1}{9}{Introducción}{section.2.1}{}}
\citation{DataverseLogo}
\citation{DataverseLogo}
\@writefile{toc}{\contentsline {section}{\numberline {2.2}Python}{10}{section.2.2}}
\newlabel{sec:python}{{2.2}{10}{Python}{section.2.2}{}}
\@writefile{lof}{\contentsline {figure}{\numberline {2.1}{\ignorespaces Imagen propiedad de Python Software Foundation \cite  {PythonLogo}.\relax }}{10}{figure.caption.4}}
\providecommand*\caption@xref[2]{\@setref\relax\@undefined{#1}}
\newlabel{fig:pythonlogo}{{2.1}{10}{Imagen propiedad de Python Software Foundation \cite {PythonLogo}.\relax }{figure.caption.4}{}}
\citation{DataverseAPI}
\@writefile{toc}{\contentsline {section}{\numberline {2.3}Dataverse}{11}{section.2.3}}
\newlabel{sec:dataverse}{{2.3}{11}{Dataverse}{section.2.3}{}}
\@writefile{lof}{\contentsline {figure}{\numberline {2.2}{\ignorespaces Imagen propiedad de Dataverse \cite  {DataverseLogo}.\relax }}{11}{figure.caption.5}}
\newlabel{fig:dataverselogo}{{2.2}{11}{Imagen propiedad de Dataverse \cite {DataverseLogo}.\relax }{figure.caption.5}{}}
\citation{TensorflowLogo}
\citation{TensorflowLogo}
\citation{Tensorflow2015}
\@writefile{toc}{\contentsline {section}{\numberline {2.4}Tensorflow}{13}{section.2.4}}
\newlabel{sec:tensorflow}{{2.4}{13}{Tensorflow}{section.2.4}{}}
\@writefile{lof}{\contentsline {figure}{\numberline {2.3}{\ignorespaces Imagen propiedad de Google \cite  {TensorflowLogo}.\relax }}{13}{figure.caption.9}}
\newlabel{fig:tensorflowlogo}{{2.3}{13}{Imagen propiedad de Google \cite {TensorflowLogo}.\relax }{figure.caption.9}{}}
\citation{Tensorboard}
\citation{Tensorboard}
\citation{TavernaLogo}
\citation{TavernaLogo}
\@writefile{lof}{\contentsline {figure}{\numberline {2.4}{\ignorespaces Ejemplo de grafo definido en Tensorflow en la visualizaci\IeC {\'o}n de Tensorboard. Imagen propiedad de Google \cite  {Tensorboard}.\relax }}{14}{figure.caption.10}}
\newlabel{fig:tensorboard}{{2.4}{14}{Ejemplo de grafo definido en Tensorflow en la visualización de Tensorboard. Imagen propiedad de Google \cite {Tensorboard}.\relax }{figure.caption.10}{}}
\@writefile{toc}{\contentsline {section}{\numberline {2.5}Taverna}{15}{section.2.5}}
\newlabel{sec:taverna}{{2.5}{15}{Taverna}{section.2.5}{}}
\@writefile{lof}{\contentsline {figure}{\numberline {2.5}{\ignorespaces Imagen propiedad de Apache \cite  {TavernaLogo}.\relax }}{15}{figure.caption.11}}
\newlabel{fig:tavernalogo}{{2.5}{15}{Imagen propiedad de Apache \cite {TavernaLogo}.\relax }{figure.caption.11}{}}
\citation{TavernaWorkflow}
\citation{TavernaWorkflow}
\@writefile{lof}{\contentsline {figure}{\numberline {2.6}{\ignorespaces Ejemplo de \textit  {workflow} cient\IeC {\'\i }fico con Taverna. Imagen extra\IeC {\'\i }da de Apache \cite  {TavernaWorkflow}.\relax }}{16}{figure.caption.12}}
\newlabel{fig:tavernaworkflow}{{2.6}{16}{Ejemplo de \textit {workflow} científico con Taverna. Imagen extraída de Apache \cite {TavernaWorkflow}.\relax }{figure.caption.12}{}}
\@setckpt{./TeX_files/methodology}{
\setcounter{page}{17}
\setcounter{equation}{0}
\setcounter{enumi}{8}
\setcounter{enumii}{0}
\setcounter{enumiii}{0}
\setcounter{enumiv}{0}
\setcounter{footnote}{0}
\setcounter{mpfootnote}{0}
\setcounter{part}{0}
\setcounter{chapter}{2}
\setcounter{section}{5}
\setcounter{subsection}{0}
\setcounter{subsubsection}{0}
\setcounter{paragraph}{0}
\setcounter{subparagraph}{0}
\setcounter{figure}{6}
\setcounter{table}{0}
\setcounter{r@tfl@t}{0}
\setcounter{AM@survey}{0}
\setcounter{ContinuedFloat}{0}
\setcounter{ALG@line}{0}
\setcounter{ALG@rem}{0}
\setcounter{ALG@nested}{0}
\setcounter{ALG@Lnr}{2}
\setcounter{ALG@blocknr}{10}
\setcounter{ALG@storecount}{0}
\setcounter{ALG@tmpcounter}{0}
\setcounter{float@type}{16}
\setcounter{algorithm}{0}
\setcounter{lstnumber}{1}
\setcounter{@pps}{0}
\setcounter{@ppsavesec}{0}
\setcounter{@ppsaveapp}{0}
\setcounter{@todonotes@numberoftodonotes}{0}
\setcounter{parentequation}{0}
\setcounter{Item}{8}
\setcounter{Hfootnote}{0}
\setcounter{bookmark@seq@number}{13}
\setcounter{tw@hyphen@char@num}{0}
\setcounter{lstlisting}{0}
\setcounter{section@level}{1}
}
